﻿<?xml version="1.0" encoding="utf-8"?>
<svg version="1.1" xmlns:xlink="http://www.w3.org/1999/xlink" width="170px" height="170px" xmlns="http://www.w3.org/2000/svg">
  <g transform="matrix(1 0 0 1 -870 -610 )">
    <path d="M 955 612  C 1001.48 612  1038 648.52  1038 695  C 1038 741.48  1001.48 778  955 778  C 908.52 778  872 741.48  872 695  C 872 648.52  908.52 612  955 612  Z " fill-rule="nonzero" fill="#ffffff" stroke="none" fill-opacity="0" />
    <path d="M 955 611.5  C 1001.76 611.5  1038.5 648.24  1038.5 695  C 1038.5 741.76  1001.76 778.5  955 778.5  C 908.24 778.5  871.5 741.76  871.5 695  C 871.5 648.24  908.24 611.5  955 611.5  Z " stroke-width="3" stroke="#795548" fill="none" />
  </g>
</svg>